name,extra.reported_by,verified,extra.repository,extra.homepage,[extra.more_information],[taxonomies.project_licenses],[taxonomies.category],summary,extra.summary_source_url,description,description_source,[extra.screenshots],[taxonomies.mobile_compatibility],[taxonomies.framework],[taxonomies.backends],[taxonomies.services],extra.app_id,extra.scale_to_fit,notice,flatpak,[taxonomies.packaged_in]
1010! Klooni,cahfofpai,✅,https://github.com/moxvallix/LinMobGames,https://lonamiwebs.github.io/klooni/,,GNU GPLv3,game,libGDX game based on the original 1010!,https://github.com/LonamiWebs/Klooni1010,Patched to run by Moxvallix.,,https://f-droid.org/de/packages/io.github.lonamiwebs.klooni/,A,libGDX,,,dev.lonami.klooni,,,,
Apple Flinger,cahfofpai,❎,https://gitlab.com/ar-/apple-flinger,,,GNU GPLv3,game,Funny single- and multiplayer game for Android - Use a slingshot to shoot with apples. Very challenging and addictive.,https://gitlab.com/ar-/apple-flinger,,,,A,libGDX,,,com.gitlab.ardash.appleflinger,,,,
Arkade,LINMOB,❎,https://invent.kde.org/games/arkade,,,"GNU GPLv3, BSD 2 Clause",game launcher,Collection of Arcade games developed in Kirigami,https://invent.kde.org/games/arkade,,,,5,Kirigami,,,org.kde.gamecenter,,,,
Blurble,LINMOB,✅,https://gitlab.gnome.org/pervoj/Blurble,https://gitlab.gnome.org/pervoj/Blurble,,GPL-3.0-or-later,game,Word guessing game,,Solve the riddle until you run out of guesses! The game is a clone of Wordle and made with localization in mind.,https://gitlab.gnome.org/pervoj/Blurble,,5,"GTK4, libadwaita",,,app.drey.Blurble,,,https://flathub.org/apps/details/app.drey.Blurble,"AUR,Flathub"
BurgerParty,cahfofpai,❎,https://github.com/agateau/burgerparty,http://agateau.com/projects/burgerparty/,,CC BY-Sa,game,A time management game for Android where you play a fast-food owner who must put together the burgers ordered by her customers before time runs out. ,https://github.com/agateau/burgerparty,,,agateau.com/projects/burgerparty/,A,libGDX,,,com.agateau.burgerparty,,,,
Caramelos,cahfofpai,❎,https://github.com/luarca84/Caramelos,,,MIT,game,Caramelos is an Android Game made with Libgdx ,https://github.com/luarca84/Caramelos,,,https://play.google.com/store/apps/details?id=com.dfzlv.gjjlt.caramelos,,,,,com.dfzlv.gjjlt.caramelos,,,,
Endless Sky,-Euso-,❎,https://github.com/endless-sky/endless-sky,https://endless-sky.github.io/,,GPLv3,game,“2D space trading and combat game similar to the classic Escape Velocity series.”,,,,,1,,,,,,,,
Flappy-gnome,cahfofpai,❎,https://gitlab.gnome.org/albfan/flappy-gnome-tutorial,,,not specified,game,Flappy GNOME is a side-scrolling game development tutorial using Vala and GTK+.,https://gitlab.gnome.org/albfan/flappy-gnome-tutorial,,,https://gitlab.gnome.org/albfan/flappy-gnome-tutorial,,GTK,,,org.gnome.Flappy,,,,
FreeOrion,-Euso-,❎,https://github.com/freeorion/freeorion,https://freeorion.org/index.php/Main_Page,,GPLv2,game,“Turn-based space empire and galactic conquest game.”,,,,,1,,,,,,,,
Gcompris,skyrrd,❎,https://github.com/gcompris/GCompris-qt,https://www.gcompris.net,,GPLv3,,,,,,,5,,,,,,,,
Gnome 2048,Moxvallix,✅,https://gitlab.gnome.org/GNOME/gnome-2048,https://wiki.gnome.org/Apps/2048,,GPLv3,game,"“The classic 2048 puzzle game, made for GNOME”",,,,,5,GTK,,,,,,,
Gnome Chess,Moxvallix,✅,https://gitlab.gnome.org/GNOME/gnome-chess,https://wiki.gnome.org/Apps/Chess,,GPLv3,game,“Chess for GNOME”,,,,,5,GTK,,,,,,,
GNU Chess,Based_Commgnunism ,✅,https://ftp.gnu.org/gnu/chess/,https://www.gnu.org/software/chess/,,GPLv3,game,"“GNU Chess is a chess-playing program. It can be used to play chess against the computer on a terminal or, more commonly, as a chess engine for graphical chess frontends such as Xboard.”",,,,,5,,,,,,,,
GzDoom,-Euso-,❎,https://github.com/coelckers/gzdoom,https://www.zdoom.org/downloads,,GPLv3,game,“ZDoom is a family of enhanced ports of the Doom engine.”,,,,,1,,,,,,,,
H-Craft,cahfofpai,❎,https://github.com/mzeilfelder/hc1,http://www.irrgheist.com/games.htm,,"z-lib and others, graphics and fonts are not free licensed!",game,H-Craft Championship is a fun to play scifi-racer.,http://www.irrgheist.com/games.htm,,,"http://www.irrgheist.com/hcraftscreenshots.htm,https://play.google.com/store/apps/details?id=com.irrgheist.hcraft_championship",,,,,,,,,
Half Life,-Euso-,❎,https://github.com/ValveSoftware/halflife,https://half-life.fandom.com/wiki/Half-Life,,Proprietary,game,“Sci-fi first-person shooter developed and published by Valve.”,,,,,1,,,,,,,,
Ironball,cahfofpai,❎,https://github.com/pracedru/ironball,https://www.pracedru.dk:8888/index.html,,GNU GPLv3,game, Mobile game inspired by the classic Speedball game for Amiga/C64 etc.,https://github.com/pracedru/ironball/,,,https://github.com/pracedru/ironball/,5,Web technologies,,,,,,,
Kolorfill,cahfofpai,❎,https://invent.kde.org/games/kolorfill,,https://pusling.com/blog/?p=505,MIT/X11,game,It is a simple flood filling game written using the amazing Kirigami framework.,https://pusling.com/blog/?p=555,,,https://pusling.com/blog/?p=505,5,"QtQuick, Kirigami",,,org.kde.kolorfill,,,,
KTuberling,cahfofpai,❎,https://invent.kde.org/games/ktuberling,,,GNU GPLv2,game,KTuberling is a simple constructor game suitable for children and adults alike ,https://anongit.kde.org/ktuberling.git,,,https://play.google.com/store/apps/details?id=org.kde.ktuberling,,,,,org.kde.ktuberling,,,,
Lucy,cahfofpai,❎,https://github.com/pabloalba/lucy/,,,Apache 2.0,game,Lucy's family has been abducted by Aliens! Help Lucy to reach the four UFOS and rescue her family.,https://play.google.com/store/apps/details?id=es.seastorm.lucy,,,https://play.google.com/store/apps/details?id=es.seastorm.lucy,A,libGDX,,,es.seastorm.lucy,,,,
Maelstrom,cornelius1968,❎,https://www.libsdl.org/projects/Maelstrom/,https://www.libsdl.org/projects/Maelstrom/,,GPLv2,game,"“You pilot your ship through the dreaded ""Maelstrom"" asteroid belt -- suddenly your best friend thrusts towards you and fires, directly at your cockpit. You raise your shields just in time, and the battle is joined.”",,,,,1,SDL,,,,,,,
Magarena,-Euso-,❎,https://github.com/magarena/magarena,https://magarena.github.io/,,GPLv3,game,“Single-player fantasy card game played against a computer opponent.”,,,,,1,,,,,,,,
MartianRun,cahfofpai,❎,https://github.com/wmora/martianrun,,,Apache-2.0,game,A 2D running game built with libGDX.,https://github.com/wmora/martianrun,,,https://play.google.com/store/apps/details?id=com.gamestudio24.cityescape.android&utm_source=global_co&utm_medium=prtnr&utm_content=Mar2515&utm_campaign=PartBadge&pcampaignid=MKT-Other-global-all-co-prtnr-py-PartBadge-Mar2515-1,A,libGDX,,,com.gamestudio24.martianrun,,,,
Minetest,cahfofpai,❎,https://github.com/minetest/minetest,https://www.minetest.net/,,"different (CC BY-SA 3.0, GNU GPLv2.1and others)",game,"Minetest, an open source infinite-world block sandbox game engine with support for survival and crafting.",https://github.com/minetest/minetest#compiling,"“Once this pull request is merged, it will have touch screen support. https://github.com/minetest/minetest/pull/10729”",,,A,,,,net.minetest.Minetest,,,https://flathub.org/apps/details/net.minetest.Minetest,"AUR,postmarketOS,Debian,Flathub"
Neverball,cahfofpai,❎,https://github.com/pseuudonym404/neverball-touch,,,GNU GPLv2,game,"Tilt the floor to roll a ball through an obstacle course within the given time. If the ball falls or time expires, a ball is lost.",https://github.com/pseuudonym404/neverball-touch,,,,,,,,,,,,
OpenMW,preflex,❎,https://gitlab.com/OpenMW/openmw,https://openmw.org/en/,,GPLv3,game,“Open source Morrowind implementation.”,,,,,1,,,,,,,,
OpenRA,-Euso-,❎,https://github.com/OpenRA/OpenRA,https://www.openra.net/,,GPLv3,game,“OpenRA is a project that recreates and modernizes the classic Command & Conquer real time strategy games.”,,,,,1,,,,,,,,
PixelWheels,cahfofpai,✅,https://github.com/moxvallix/LinMobGames,http://agateau.com/projects/pixelwheels/,,CC BY-SA 4.0 International,game,"Pixel Wheels is a top-down racing game for PC (Linux, Mac, Windows) and Android.",http://agateau.com/projects/pixelwheels/,"Race for the first place on various tracks. Pick up bonuses to boost your position or slow down competitors!"" Patched to run by Moxvallix.",http://agateau.com/projects/pixelwheels/,http://agateau.com/projects/pixelwheels/,A,libGDX,,,com.agateau.tinywheels.android,,,,
Plasma Samegame,LINMOB,✅,https://invent.kde.org/plasma-mobile/plasma-samegame,,,GNU GPLv2,game,Samegame clone suitable for mobile devices,https://invent.kde.org/plasma-mobile/plasma-samegame,,,https://linmob.net/2020/09/05/pinephone-building-plasma-mobile-apps-from-the-aur.html#plasma-samegame,5,Kirigami,,,org.kde.samegame,,,,
Poland can into Space,cahfofpai,❎,https://github.com/JSandomierz/pcis,,,!!! Not sure either it is a free software license (it is not allowed to generate revenue from the software): NPOSL-3.0,game,‘Poland can into Space’ is a simple Android game based on LibGDX framework,https://github.com/JSandomierz/pcis,,,https://github.com/JSandomierz/pcis,,,,,pl.sanszo.pcis,,,,
PrBoom,-Euso-,❎,https://sourceforge.net/projects/prboom/,http://prboom.sourceforge.net/,,GPLv2,game,“PrBoom is the culmination of years of work by various people and projects on the Doom source code.”,,,,,1,,,,,,,,
Quicky in search of Mickey,cahfofpai,❎,https://github.com/cyberbach/Adventure,,,not specified,game,In a beautiful magical forest magic live animals. Among them are our friends Quicky and Mickey. But once Mickey got lost. What happened to him? Quicky will have to find his brother and unravel the mysteries of the magic forest.,https://play.google.com/store/apps/details?id=net.overmy.adventure,,,https://play.google.com/store/apps/details?id=net.overmy.adventure,A,libGDX,,,net.overmy.adventure,,,,
Rabbit Escape,cahfofpai,❎,https://github.com/andybalaam/rabbit-escape,https://artificialworlds.net/rabbit-escape,,GNU GPLv2,game,Android and PC game inspired by Lemmings and Pingus,https://github.com/andybalaam/rabbit-escape,,,artificialworlds.net/rabbit-escape,,libGDX,,,net.artificialworlds.rabbitescape,,,,
Rocket Guardian,cahfofpai,❎,https://gitlab.com/atorresm/rocket-guardian,,,GNU GPLv3,game,Rocket Guardian is a android game about a guardian that must protect a city from the falling zombies.,https://gitlab.com/atorresm/rocket-guardian,,,,,libGDX,,,atm.rocketguardian.RocketGuardian,,,,
RuneLite,immychan,❎,https://github.com/runelite/runelite,https://runelite.net/,,BSD 2-Clause License,game,"“RuneLite is a free, open source OldSchool RuneScape client.”",https://github.com/runelite/runelite,"RuneLite is a free, open source OldSchool RuneScape client.",https://github.com/runelite/runelite,,1,,,,,,,,
Save the bunny!,cahfofpai,❎,https://github.com/pabloalba/savethebunny,,,Apache 2.0,game,Save the bunny! is a turn-based puzzle game.,https://play.google.com/store/apps/details?id=es.seastorm.merlin,,,https://play.google.com/store/apps/details?id=es.seastorm.merlin,A,libGDX,,,es.seastorm.merlin,,,,
Shattered Pixel Dungeon,Moxvallix,✅,https://github.com/ebolalex/shattered-pixel-dungeon,https://shatteredpixel.com/,,GPLv3,game,"“A Roguelike RPG, with randomly generated levels, items, enemies, and traps!”",,“Forked by ebolalex to allow it to run. Best in fullscreen mode. Needs java.”,,,5,libGDX,,,,,,,
Shootin Stars,Hank,✅,https://gitlab.com/greenbeast/shootin-stars,,,MIT,game,“Round based endless runner style space shooter”,https://gitlab.com/greenbeast/shootin-stars,Built for the PinePhone and runs just fine,,https://gitlab.com/greenbeast/shootin-stars,5,Godot,Godot,,,,,,
Simon Tatham's Portable Puzzle Collection,Moxvallix,✅,https://git.tartarus.org/?p=simon/puzzles.git,https://www.chiark.greenend.org.uk/~sgtatham/puzzles/,,MIT,game,“A collection of small computer programs which implement one-player puzzle games.”,,"“Games mostly scale well, and can all be played with the touchscreen. Might clog your app draw with 15 different game icons.”",,,4,GTK,,,,,,,AUR
Superjumper,cahfofpai,❎,https://github.com/libgdx/libgdx-demo-superjumper,,,not specified,"demo, game",Super Jumper is a very simple Doodle Jump clone.,https://github.com/libgdx/libgdx-demo-superjumper,,,https://github.com/libgdx/libgdx-demo-superjumper,,libGDX,,,com.badlogicgames.superjumper,,,,
SuperTux,cahfofpai,❎,https://github.com/SuperTux/supertux,https://www.supertux.org/,,GNU GPLv3,game,"It features 28+ racetracks, a fresh design and unique driving physics.",https://github.com/SuperTux/supertux,,,https://www.supertux.org/screenshots.html,,,,,org.supertuxproject.SuperTux,,,,
SuperTuxKart,cahfofpai,✅,https://github.com/supertuxkart/stk-code,https://supertuxkart.net/Main_Page,,"different (GNU GPLv3, CC-BY, CC BY-SA, Public Domain and others)",game,SuperTuxKart is a free kart racing game. It focuses on fun and not on realistic kart physics.,https://github.com/supertuxkart/stk-code,,,https://play.google.com/store/apps/details?id=org.supertuxkart.stk,,,,,net.supertuxkart.SuperTuxKart,,,,
Swooper,LINMOB,❎,https://invent.kde.org/luie/Swooper,,,not specified,game,Minesweeper for Plasma Mobile,https://invent.kde.org/luie/Swooper,This is a simple Minesweeper implementation for Plasma Mobile!,https://invent.kde.org/luie/Swooper,,5,Kirigami,,,org.kde.swooper,,,,
Treasure,cahfofpai,❎,https://source.puri.sm/david.boddie/treasure,,,GNU GPLv3,game,"An application example, implementing a simple guessing game.",https://source.puri.sm/david.boddie/treasure,,,,,"GTK, libhandy",,,sm.puri.treasure,,,,
Tremelous,-Euso-,❎,https://github.com/darklegion/darklegion.github.io,https://tremulous.net/,,GPLv2,game,“Asymmetric team-based first-person shooter with real-time strategy elements.”,,,,,1,,,,,,,,
TuxRacer,cahfofpai,❎,https://github.com/pseuudonym404/tuxracer-touch,,,GNU GPLv2,game,Ubuntu touch tux racer port ,https://github.com/pseuudonym404/tuxracer-touch,,,https://uappexplorer.com/app/tuxracer.lb,,,,,,,,,
TwoFun,cahfofpai,❎,https://gitlab.com/tabos/twofun,https://tabos.gitlab.io/project/twofun/,,GNU GPLv3,game,Simple touch based game for two player,https://tabos.gitlab.io/project/twofun/,,,https://tabos.gitlab.io/project/twofun/,,GTK,,,org.tabos.twofun,,,,
Unciv,Nob0dy73,❎,https://github.com/yairm210/UnCiv,https://yairm210.itch.io/unciv,,MPLv2,game,“An open-source reimplementation of the most famous civilization-building game ever.”,,"“The resolution is pretty messed up with the text bordering on unreadable, but otherwise running fine”",https://www.reddit.com/r/PinePhoneOfficial/comments/m6r919/was_able_to_get_unciv_running_on_mobian/,,4,,,,,,,,
Xash3D,-Euso-,❎,https://github.com/FWGS/xash3d-fwgs,https://xash.su/xash3d.html,,Complicated,game engine,“Custom Gold Source engine rewritten from scratch.”,,,,,1,,,,,,,,
Zandronum,-Euso-,❎,https://osdn.net/projects/zandronum/,https://zandronum.com/,,Other,game,"“Multiplayer oriented port, based off Skulltag, for Doom and Doom II by id Software.”",,,,,1,,,,,,,,
